refV = 3914
0,  3.94,  2.94,  3868.69,  2.25 
1,  39.88,  2.31,  3868.69,  2.62 
2,  74.94,  1.94,  3868.31,  2.19 
3,  113.62,  1.56,  3869.44,  1.62 
4,  152.25,  1.75,  3870.19,  2.56 
5,  190.50,  2.19,  3869.56,  1.69 
6,  232.69,  2.31,  3868.81,  1.38 
7,  271.00,  1.56,  3870.94,  2.06 
8,  311.00,  2.62,  3870.00,  2.25 
9,  350.62,  2.88,  3870.06,  3.19 
10,  390.31,  2.81,  3869.94,  2.00 
11,  428.69,  2.94,  3869.38,  2.00 
12,  465.69,  5.12,  3870.81,  1.69 
13,  504.88,  6.31,  3870.75,  1.94 
14,  543.88,  5.88,  3869.75,  2.38 
15,  581.25,  5.50,  3870.00,  2.50 
16,  620.81,  3.62,  3869.19,  1.88 
17,  660.44,  3.56,  3868.75,  2.25 
18,  700.75,  3.62,  3870.44,  2.50 
19,  740.56,  3.56,  3869.19,  2.62 
20,  779.75,  3.62,  3870.44,  2.56 
21,  818.06,  3.19,  3868.50,  1.62 
22,  856.50,  3.94,  3869.69,  2.50 
23,  893.31,  3.94,  3869.38,  2.44 
24,  929.38,  3.56,  3870.00,  2.62 
25,  965.56,  3.94,  3869.69,  1.88 
26,  1007.88,  3.88,  3868.69,  1.81 
27,  1049.62,  3.44,  3868.56,  1.50 
28,  1091.62,  3.31,  3867.75,  1.50 
29,  1131.31,  4.25,  3864.19,  1.44 
30,  1170.50,  3.44,  3865.81,  1.75 
31,  1208.69,  4.06,  3871.38,  2.19 
32,  1246.44,  4.75,  3871.50,  2.31 
33,  1283.06,  3.75,  3870.69,  2.44 
34,  1319.62,  3.88,  3871.00,  1.75 
35,  1357.75,  5.62,  3870.06,  2.25 
36,  1395.38,  3.31,  3871.94,  1.69 
37,  1440.00,  4.12,  3869.88,  1.62 
38,  1482.19,  3.75,  3870.31,  2.81 
39,  1522.06,  4.00,  3868.31,  1.81 
40,  1561.88,  4.62,  3866.88,  2.50 
41,  1599.12,  4.50,  3871.50,  2.19 
42,  1637.19,  5.69,  3871.69,  2.25 
43,  1673.88,  6.12,  3872.00,  2.56 
44,  1709.88,  7.25,  3872.38,  2.00 
45,  1748.94,  6.62,  3872.12,  2.25 
46,  1785.75,  5.81,  3871.88,  2.00 
47,  1828.19,  6.38,  3870.44,  2.25 
48,  1869.44,  4.25,  3872.19,  1.19 
49,  1910.25,  6.31,  3870.50,  1.81 
50,  1952.25,  7.12,  3870.81,  2.19 
51,  1989.69,  5.75,  3872.25,  2.00 
52,  2029.25,  10.62,  3871.00,  1.50 
53,  2064.75,  14.19,  3871.56,  2.19 
54,  2101.19,  10.94,  3873.25,  2.44 
55,  2138.94,  10.00,  3870.56,  1.69 
56,  2177.44,  8.12,  3872.19,  1.88 
57,  2218.25,  7.25,  3871.62,  1.75 
58,  2261.44,  7.88,  3872.44,  3.19 
59,  2300.19,  7.31,  3870.19,  2.25 
60,  2338.25,  6.69,  3874.81,  1.38 
61,  2376.06,  7.94,  3873.56,  2.19 
62,  2411.88,  6.56,  3873.38,  1.75 
63,  2452.69,  7.38,  3873.75,  1.94 
64,  2492.50,  7.88,  3874.38,  2.38 
65,  2529.25,  7.56,  3873.50,  2.25 
66,  2567.56,  8.44,  3872.81,  2.00 
67,  2607.75,  6.94,  3872.38,  2.00 
68,  2648.94,  7.94,  3871.12,  1.94 
69,  2690.38,  8.31,  3870.69,  2.06 
70,  2728.88,  7.81,  3874.75,  1.81 
71,  2765.50,  7.25,  3874.44,  2.00 
72,  2804.75,  8.25,  3875.75,  2.56 
73,  2842.12,  8.19,  3875.44,  1.62 
74,  2881.81,  9.44,  3876.31,  1.62 
75,  2920.38,  8.88,  3875.06,  1.69 
76,  2959.81,  9.06,  3873.62,  1.69 
77,  3000.56,  9.38,  3874.12,  2.75 
78,  3039.00,  8.06,  3872.75,  1.69 
79,  3080.62,  8.94,  3873.06,  2.56 
80,  3119.12,  8.81,  3874.44,  2.00 
81,  3156.25,  8.88,  3873.25,  1.88 
82,  3194.62,  8.12,  3874.75,  2.06 
83,  3234.31,  9.31,  3874.25,  3.06 
84,  3271.00,  8.81,  3874.44,  1.94 
85,  3308.00,  8.56,  3874.81,  1.94 
86,  3346.38,  8.31,  3874.00,  1.75 
87,  3389.12,  8.56,  3873.19,  2.00 
88,  3428.50,  8.62,  3874.25,  2.12 
89,  3467.56,  9.38,  3873.31,  2.00 
90,  3506.00,  9.56,  3872.38,  1.75 
91,  3543.00,  10.25,  3872.00,  2.00 
92,  3582.75,  10.88,  3872.69,  2.38 
93,  3621.31,  11.00,  3874.31,  2.19 
94,  3659.81,  11.56,  3873.69,  2.56 
95,  3702.06,  11.12,  3874.38,  2.06 
96,  3740.25,  11.69,  3875.56,  1.81 
97,  3780.00,  11.94,  3875.50,  2.19 
98,  3819.06,  11.38,  3876.06,  2.12 
99,  3839.75,  10.19,  3875.38,  2.06 
100,  3842.12,  8.88,  3876.94,  1.12 
